or1200_phase1.vcd
$date
	Tue Jun 09 12:00:31 2026
$end
$version
	Icarus Verilog
$end
$timescale
	1ps
$end
$scope module tb_or1200 $end
$var wire 32 ! mem_data_in [31:0] $end
$var wire 32 " reg_r8 [31:0] $end
$var wire 32 # reg_r7 [31:0] $end
$var wire 32 $ reg_r6 [31:0] $end
$var wire 32 % reg_r5 [31:0] $end
$var wire 32 & reg_r4 [31:0] $end
$var wire 32 ' reg_r3 [31:0] $end
$var wire 32 ( reg_r2 [31:0] $end
$var wire 32 ) reg_r1 [31:0] $end
$var wire 32 * pc_out [31:0] $end
$var wire 1 + mem_write $end
$var wire 1 , mem_read $end
$var wire 32 - mem_data_out [31:0] $end
$var wire 32 . mem_addr [31:0] $end
$var wire 32 / alu_result [31:0] $end
$var reg 1 0 clk $end
$var reg 32 1 instruction [31:0] $end
$var reg 1 2 rst $end
$scope module core $end
$var wire 1 0 clk $end
$var wire 32 3 instruction [31:0] $end
$var wire 32 4 mem_addr [31:0] $end
$var wire 32 5 mem_data_in [31:0] $end
$var wire 32 6 mem_data_out [31:0] $end
$var wire 1 , mem_read $end
$var wire 1 + mem_write $end
$var wire 32 7 pc_out [31:0] $end
$var wire 1 2 rst $end
$var wire 1 8 zero_flag $end
$var wire 5 9 write_reg [4:0] $end
$var wire 32 : write_data [31:0] $end
$var wire 1 ; sign_flag $end
$var wire 32 < shift_result [31:0] $end
$var wire 3 = shift_op [2:0] $end
$var wire 5 > rt [4:0] $end
$var wire 5 ? rs [4:0] $end
$var wire 1 @ reg_write $end
$var wire 1 A reg_src $end
$var wire 32 B reg_r8 [31:0] $end
$var wire 32 C reg_r7 [31:0] $end
$var wire 32 D reg_r6 [31:0] $end
$var wire 32 E reg_r5 [31:0] $end
$var wire 32 F reg_r4 [31:0] $end
$var wire 32 G reg_r3 [31:0] $end
$var wire 32 H reg_r2 [31:0] $end
$var wire 32 I reg_r1 [31:0] $end
$var wire 32 J read_data2 [31:0] $end
$var wire 32 K read_data1 [31:0] $end
$var wire 5 L rd [4:0] $end
$var wire 1 M overflow_flag $end
$var wire 64 N mul_result [63:0] $end
$var wire 1 O mem_write_ctrl $end
$var wire 2 P mem_size [1:0] $end
$var wire 1 Q mem_read_ctrl $end
$var wire 26 R jump_target [25:0] $end
$var wire 16 S immediate [15:0] $end
$var wire 32 T imm_extended [31:0] $end
$var wire 1 U illegal_instr $end
$var wire 4 V flags [3:0] $end
$var wire 1 W carry_out $end
$var wire 1 X branch_cond $end
$var wire 1 Y branch $end
$var wire 1 Z alu_src_b $end
$var wire 32 [ alu_result [31:0] $end
$var wire 32 \ alu_operand_b [31:0] $end
$var wire 4 ] alu_op [3:0] $end
$var reg 32 ^ pc [31:0] $end
$scope module alu_unit $end
$var wire 32 _ and_result [31:0] $end
$var wire 1 ` carry_in $end
$var wire 32 a operand_b [31:0] $end
$var wire 32 b or_result [31:0] $end
$var wire 32 c xor_result [31:0] $end
$var wire 33 d sub_result [32:0] $end
$var wire 32 e shift_result [31:0] $end
$var wire 5 f shift_amount [4:0] $end
$var wire 32 g operand_a [31:0] $end
$var wire 64 h mul_result [63:0] $end
$var wire 4 i alu_op [3:0] $end
$var wire 33 j add_result [32:0] $end
$var parameter 4 k ALU_ADD $end
$var parameter 4 l ALU_ADDC $end
$var parameter 4 m ALU_AND $end
$var parameter 4 n ALU_CMP $end
$var parameter 4 o ALU_MUL $end
$var parameter 4 p ALU_OR $end
$var parameter 4 q ALU_SLL $end
$var parameter 4 r ALU_SRA $end
$var parameter 4 s ALU_SRL $end
$var parameter 4 t ALU_SUB $end
$var parameter 4 u ALU_SUBC $end
$var parameter 4 v ALU_XOR $end
$var reg 1 W carry_out $end
$var reg 1 M overflow $end
$var reg 32 w result [31:0] $end
$var reg 1 ; sign_flag $end
$var reg 1 8 zero_flag $end
$upscope $end
$scope module ctrl $end
$var wire 1 0 clk $end
$var wire 32 x instruction [31:0] $end
$var wire 1 2 rst $end
$var wire 6 y opcode [5:0] $end
$var wire 6 z func [5:0] $end
$var reg 4 { alu_op [3:0] $end
$var reg 1 Z alu_src_b $end
$var reg 1 Y branch $end
$var reg 1 X branch_cond $end
$var reg 1 U illegal_instruction $end
$var reg 16 | immediate [15:0] $end
$var reg 26 } jump_target [25:0] $end
$var reg 1 Q mem_read $end
$var reg 2 ~ mem_size [1:0] $end
$var reg 1 O mem_write $end
$var reg 5 !" rd [4:0] $end
$var reg 1 A reg_src $end
$var reg 1 @ reg_write $end
$var reg 5 "" rs [4:0] $end
$var reg 5 #" rt [4:0] $end
$var reg 5 $" write_reg [4:0] $end
$upscope $end
$scope module mul_unit $end
$var wire 1 0 clk $end
$var wire 32 %" multiplier [31:0] $end
$var wire 1 &" multiply_en $end
$var wire 1 2 rst $end
$var wire 32 '" multiplicand [31:0] $end
$var wire 64 (" fast_product [63:0] $end
$var reg 32 )" a_reg [31:0] $end
$var reg 32 *" b_reg [31:0] $end
$var reg 5 +" bit_counter [4:0] $end
$var reg 1 ," multiplying $end
$var reg 64 -" product [63:0] $end
$var reg 1 ." ready $end
$upscope $end
$scope module regfile $end
$var wire 1 0 clk $end
$var wire 32 /" r1_out [31:0] $end
$var wire 32 0" r2_out [31:0] $end
$var wire 32 1" r3_out [31:0] $end
$var wire 32 2" r4_out [31:0] $end
$var wire 32 3" r5_out [31:0] $end
$var wire 32 4" r6_out [31:0] $end
$var wire 32 5" r7_out [31:0] $end
$var wire 32 6" r8_out [31:0] $end
$var wire 5 7" read_addr1 [4:0] $end
$var wire 5 8" read_addr2 [4:0] $end
$var wire 32 9" read_data1 [31:0] $end
$var wire 32 :" read_data2 [31:0] $end
$var wire 1 2 rst $end
$var wire 5 ;" write_addr [4:0] $end
$var wire 32 <" write_data [31:0] $end
$var wire 1 @ write_enable $end
$var integer 32 =" i [31:0] $end
$upscope $end
$scope module shifter_unit $end
$var wire 32 >" data_in [31:0] $end
$var wire 32 ?" result [31:0] $end
$var wire 5 @" shift_amount [4:0] $end
$var wire 3 A" shift_op [2:0] $end
$var wire 32 B" shift_stage5 [31:0] $end
$var wire 32 C" shift_stage4 [31:0] $end
$var wire 32 D" shift_stage3 [31:0] $end
$var wire 32 E" shift_stage2 [31:0] $end
$var wire 32 F" shift_stage1 [31:0] $end
$var parameter 3 G" SHIFT_LL $end
$var parameter 3 H" SHIFT_RA $end
$var parameter 3 I" SHIFT_RL $end
$scope function shift_left_right $end
$var reg 5 J" amount [4:0] $end
$var reg 32 K" data [31:0] $end
$var reg 3 L" op [2:0] $end
$var reg 32 M" temp [31:0] $end
$var integer 32 N" i [31:0] $end
$upscope $end
$upscope $end
$upscope $end
$upscope $end
$enddefinitions $end
$comment Show the parameter values. $end
$dumpall
b1 I"
b10 H"
b0 G"
b110 v
b11 u
b10 t
b1000 s
b1001 r
b111 q
b101 p
b1010 o
b1011 n
b100 m
b1 l
b0 k
$end
#0
$dumpvars
b10000 N"
b0 M"
b0 L"
b0 K"
b10000 J"
b0 F"
b0 E"
b0 D"
b0 C"
b0 B"
b0 A"
b0 @"
b0 ?"
b0 >"
b100000 ="
b0 <"
b0 ;"
b0 :"
b0 9"
b0 8"
b0 7"
b0 6"
b0 5"
b0 4"
b110010 3"
b101000 2"
b11110 1"
b10100 0"
b1010 /"
x."
bx -"
x,"
bx +"
bx *"
bx )"
b0 ("
b0 '"
0&"
b0 %"
b0 $"
b0 #"
b0 ""
b0 !"
b10 ~
b0 }
b0 |
b0 {
b0 z
b0 y
b0 x
b0 w
b0 j
b0 i
b0 h
b0 g
b0 f
b0 e
b0 d
b0 c
b0 b
b0 a
0`
b0 _
bx ^
b0 ]
b0 \
b0 [
0Z
0Y
0X
0W
b100 V
1U
b0 T
b0 S
b0 R
0Q
b10 P
0O
bx N
0M
b0 L
b0 K
b0 J
b1010 I
b10100 H
b11110 G
b101000 F
b110010 E
b0 D
b0 C
b0 B
0A
1@
b0 ?
b0 >
b0 =
b0 <
0;
b0 :
b0 9
18
bx 7
b0 6
b0 5
b0 4
b0 3
12
b0 1
00
b0 /
b0 .
b0 -
0,
0+
bx *
b1010 )
b10100 (
b11110 '
b101000 &
b110010 %
b0 $
b0 #
b0 "
b0 !
$end
#10000
b0 %
b0 E
b0 3"
b0 &
b0 F
b0 2"
b0 '
b0 G
b0 1"
b0 (
b0 H
b0 0"
b0 )
b0 I
b0 /"
b0 +"
0,"
1."
b0 N
b0 -"
b0 *
b0 7
b0 ^
b100000 ="
10
#20000
00
#30000
b100000 ="
10
#40000
00
#50000
b100000 ="
10
#60000
00
#70000
b100000 ="
10
#80000
00
#90000
b100000 ="
10
#100000
00
#110000
b100000 ="
10
#120000
00
#130000
b100000 ="
10
#140000
00
#150000
b100000 ="
10
#160000
00
#170000
b100000 ="
10
#180000
00
#190000
b100000 ="
10
#200000
00
02
#210000
b100 *
b100 7
b100 ^
10
#220000
00
#230000
b1000 *
b1000 7
b1000 ^
10
#240000
00
#250000
b1100 *
b1100 7
b1100 ^
10
#260000
00
#270000
b10000 *
b10000 7
b10000 ^
10
#280000
00
#290000
b10100 *
b10100 7
b10100 ^
10
#300000
00
#310000
b11000 *
b11000 7
b11000 ^
10
#320000
00
#330000
b11100 *
b11100 7
b11100 ^
10
#340000
00
#350000
b100000 *
b100000 7
b100000 ^
10
#360000
00
#370000
b100100 *
b100100 7
b100100 ^
10
#380000
00
#390000
b101000 *
b101000 7
b101000 ^
10
#400000
b10100 :
b10100 <"
bx !
bx 5
b10100 @"
b10100 b
b10100 c
b0 V
08
b10100 .
b10100 4
b10100 /
b10100 [
b10100 w
b10100 f
b10100 j
b111111111111111111111111111101100 d
b10100 \
b10100 a
b10100 %"
b10 9
b10 $"
b10 ;"
1Z
0U
1@
b100000000000010100 R
b100000000000010100 }
b10100 T
b10100 S
b10100 |
b10 >
b10 #"
b10 8"
b1000 y
b10100 z
00
b100000000000100000000000010100 1
b100000000000100000000000010100 3
b100000000000100000000000010100 x
#410000
b10100 -
b10100 6
b10100 J
b10100 :"
b10100 (
b10100 H
b10100 0"
b101100 *
b101100 7
b101100 ^
10
#420000
00
#430000
b110000 *
b110000 7
b110000 ^
10
#440000
00
#450000
b110100 *
b110100 7
b110100 ^
10
#460000
00
#470000
b111000 *
b111000 7
b111000 ^
10
#480000
00
#490000
b111100 *
b111100 7
b111100 ^
10
#500000
00
#510000
b1000000 *
b1000000 7
b1000000 ^
10
#520000
00
#530000
b1000100 *
b1000100 7
b1000100 ^
10
#540000
00
#550000
b1001000 *
b1001000 7
b1001000 ^
10
#560000
00
#570000
b1001100 *
b1001100 7
b1001100 ^
10
#580000
00
#590000
b1010000 *
b1010000 7
b1010000 ^
10
#600000
b11110 :
b11110 <"
b11110 @"
b11110 b
b11110 c
b11110 .
b11110 4
b11110 /
b11110 [
b11110 w
b11110 f
b11110 j
b111111111111111111111111111100010 d
b11110 \
b11110 a
b11110 %"
b11 9
b11 $"
b11 ;"
1@
1Z
b110000000000011110 R
b110000000000011110 }
b11110 T
b11110 S
b11110 |
b0 -
b0 6
b0 J
b0 :"
b11 >
b11 #"
b11 8"
b11110 z
00
b100000000000110000000000011110 1
b100000000000110000000000011110 3
b100000000000110000000000011110 x
#610000
b11110 -
b11110 6
b11110 J
b11110 :"
b11110 '
b11110 G
b11110 1"
b1010100 *
b1010100 7
b1010100 ^
10
#620000
00
#630000
b1011000 *
b1011000 7
b1011000 ^
10
#640000
00
#650000
b1011100 *
b1011100 7
b1011100 ^
10
#660000
00
#670000
b1100000 *
b1100000 7
b1100000 ^
10
#680000
00
#690000
b1100100 *
b1100100 7
b1100100 ^
10
#700000
00
#710000
b1101000 *
b1101000 7
b1101000 ^
10
#720000
00
#730000
b1101100 *
b1101100 7
b1101100 ^
10
#740000
00
#750000
b1110000 *
b1110000 7
b1110000 ^
10
#760000
00
#770000
b1110100 *
b1110100 7
b1110100 ^
10
#780000
00
#790000
b1111000 *
b1111000 7
b1111000 ^
10
#800000
b110010 :
b110010 <"
b10010 @"
b110010 b
b110010 c
b110010 .
b110010 4
b110010 /
b110010 [
b110010 w
b10010 f
b110010 j
b111111111111111111111111111001110 d
b110010 \
b110010 a
b110010 %"
b101 9
b101 $"
b101 ;"
1@
1Z
b1010000000000110010 R
b1010000000000110010 }
b110010 T
b110010 S
b110010 |
b0 -
b0 6
b0 J
b0 :"
b101 >
b101 #"
b101 8"
b110010 z
00
b100000000001010000000000110010 1
b100000000001010000000000110010 3
b100000000001010000000000110010 x
#810000
b110010 -
b110010 6
b110010 J
b110010 :"
b110010 %
b110010 E
b110010 3"
b1111100 *
b1111100 7
b1111100 ^
10
#820000
00
#830000
b10000000 *
b10000000 7
b10000000 ^
10
#840000
00
#850000
b10000100 *
b10000100 7
b10000100 ^
10
#860000
00
#870000
b10001000 *
b10001000 7
b10001000 ^
10
#880000
00
#890000
b10001100 *
b10001100 7
b10001100 ^
10
#900000
00
#910000
b10010000 *
b10010000 7
b10010000 ^
10
#920000
00
#930000
b10010100 *
b10010100 7
b10010100 ^
10
#940000
00
#950000
b10011000 *
b10011000 7
b10011000 ^
10
#960000
00
#970000
b10011100 *
b10011100 7
b10011100 ^
10
#980000
00
#990000
b10100000 *
b10100000 7
b10100000 ^
10
#1000000
b1010000000000000000 C"
b10100000000 D"
b1010000 E"
b11110 @"
b11110 f
b110010 :
b110010 <"
b11110 \
b11110 a
b11110 %"
b10000 N"
b0 M"
b10000 J"
b1010000000000000000 K"
b10100 F"
b1010 c
b11110 b
b10100 _
b110010 .
b110010 4
b110010 /
b110010 [
b110010 w
b1 9
b1 $"
b1 ;"
1@
0Z
b10000110000100000100000 R
b10000110000100000100000 }
b100000100000 T
b100000100000 S
b100000100000 |
b1 L
b1 !"
b11110 -
b11110 6
b11110 J
b11110 :"
b11 >
b11 #"
b11 8"
b1001011000 ("
b1001011000 h
b111111111111111111111111111110110 d
b110010 j
b10100 K
b10100 g
b10100 '"
b10100 9"
b10100 >"
b10 ?
b10 ""
b10 7"
b0 y
b100000 z
00
b10000110000100000100000 1
b10000110000100000100000 3
b10000110000100000100000 x
#1010000
b110010 )
b110010 I
b110010 /"
b10100100 *
b10100100 7
b10100100 ^
10
#1020000
00
#1030000
b10101000 *
b10101000 7
b10101000 ^
10
#1040000
00
#1050000
b10101100 *
b10101100 7
b10101100 ^
10
#1060000
00
#1070000
b10110000 *
b10110000 7
b10110000 ^
10
#1080000
00
#1090000
b10110100 *
b10110100 7
b10110100 ^
10
#1100000
00
#1110000
b10111000 *
b10111000 7
b10111000 ^
10
#1120000
00
#1130000
b10111100 *
b10111100 7
b10111100 ^
10
#1140000
00
#1150000
b11000000 *
b11000000 7
b11000000 ^
10
#1160000
00
#1170000
b11000100 *
b11000100 7
b11000100 ^
10
#1180000
00
#1190000
b11001000 *
b11001000 7
b11001000 ^
10
#1200000
b1100100000 D"
b1100100000 C"
b1100100000 <
b1100100000 ?"
b1100100000 B"
b110010 E"
b100 @"
b100 f
b10010110 :
b10010110 <"
b1100100 \
b1100100 a
b1100100 %"
b10000 N"
b11001000000000000000000000 M"
b10000 J"
b1100100000 K"
b110010 F"
b1010110 c
b1110110 b
b100000 _
b10010110 .
b10010110 4
b10010110 /
b10010110 [
b10010110 w
1Z
b100 9
b100 $"
b100 ;"
1@
b101001000000000001100100 R
b101001000000000001100100 }
b1100100 T
b1100100 S
b1100100 |
b0 L
b0 !"
b0 -
b0 6
b0 J
b0 :"
b100 >
b100 #"
b100 8"
b1001110001000 ("
b1001110001000 h
b111111111111111111111111111001110 d
b10010110 j
b110010 K
b110010 g
b110010 '"
b110010 9"
b110010 >"
b101 ?
b101 ""
b101 7"
b1000 y
b100100 z
00
b100000101001000000000001100100 1
b100000101001000000000001100100 3
b100000101001000000000001100100 x
#1210000
b10010110 -
b10010110 6
b10010110 J
b10010110 :"
b10010110 &
b10010110 F
b10010110 2"
b11001100 *
b11001100 7
b11001100 ^
10
#1220000
00
#1230000
b11010000 *
b11010000 7
b11010000 ^
10
#1240000
00
#1250000
b11010100 *
b11010100 7
b11010100 ^
10
#1260000
00
#1270000
b11011000 *
b11011000 7
b11011000 ^
10
#1280000
00
#1290000
b11011100 *
b11011100 7
b11011100 ^
10
#1300000
00
#1310000
b11100000 *
b11100000 7
b11100000 ^
10
#1320000
00
#1330000
b11100100 *
b11100100 7
b11100100 ^
10
#1340000
00
#1350000
b11101000 *
b11101000 7
b11101000 ^
10
#1360000
00
#1370000
b11101100 *
b11101100 7
b11101100 ^
10
#1380000
00
#1390000
b11110000 *
b11110000 7
b11110000 ^
10
#1400000
b11 C"
b0 <
b0 ?"
b0 B"
b11 D"
b11 K"
b10000 J"
b10000 N"
b0 M"
b10 L"
b11110 :
b11110 <"
b10100 @"
b10000 _
b110110 b
b100110 c
b10100 f
b10 =
b10 A"
b11110 .
b11110 4
b11110 /
b11110 [
b11110 w
b1000110 j
b11110 d
b1111101000 h
b1111101000 ("
b10100 \
b10100 a
b10100 %"
b10 ]
b10 i
b10 {
b110 9
b110 $"
b110 ;"
1@
0Z
b1000100011000000100010 R
b1000100011000000100010 }
b11000000100010 T
b11000000100010 S
b11000000100010 |
b110 L
b110 !"
b10100 -
b10100 6
b10100 J
b10100 :"
b10 >
b10 #"
b10 8"
b1 ?
b1 ""
b1 7"
b0 y
b100010 z
00
b1000100011000000100010 1
b1000100011000000100010 3
b1000100011000000100010 x
#1410000
b11110 $
b11110 D
b11110 4"
b11110100 *
b11110100 7
b11110100 ^
10
#1420000
00
#1430000
b11111000 *
b11111000 7
b11111000 ^
10
#1440000
00
#1450000
b11111100 *
b11111100 7
b11111100 ^
10
#1460000
00
#1470000
b100000000 *
b100000000 7
b100000000 ^
10
#1480000
00
#1490000
b100000100 *
b100000100 7
b100000100 ^
10
#1500000
00
#1510000
b100001000 *
b100001000 7
b100001000 ^
10
#1520000
00
#1530000
b100001100 *
b100001100 7
b100001100 ^
10
#1540000
00
#1550000
b100010000 *
b100010000 7
b100010000 ^
10
#1560000
00
#1570000
b100010100 *
b100010100 7
b100010100 ^
10
#1580000
00
#1590000
b100011000 *
b100011000 7
b100011000 ^
10
#1600000
b110010 C"
b110010 D"
b110010 <
b110010 ?"
b110010 B"
b110010 K"
b10000 J"
b110010 M"
b100 L"
b10010 :
b10010 <"
b11110 @"
b10010 _
b111110 b
b101100 c
b11110 f
b100 =
b100 A"
b10010 .
b10010 4
b10010 /
b10010 [
b10010 w
b1010000 j
b10100 d
b10111011100 h
b10111011100 ("
b11110 \
b11110 a
b11110 %"
b111 9
b111 $"
b111 ;"
1@
b100 ]
b100 i
b100 {
b1000110011100000100100 R
b1000110011100000100100 }
b11100000100100 T
b11100000100100 S
b11100000100100 |
b111 L
b111 !"
b11110 -
b11110 6
b11110 J
b11110 :"
b11 >
b11 #"
b11 8"
b100100 z
00
b1000110011100000100100 1
b1000110011100000100100 3
b1000110011100000100100 x
#1610000
b10010 #
b10010 C
b10010 5"
b100011100 *
b100011100 7
b100011100 ^
10
#1620000
00
#1630000
b100100000 *
b100100000 7
b100100000 ^
10
#1640000
00
#1650000
b100100100 *
b100100100 7
b100100100 ^
10
#1660000
00
#1670000
b100101000 *
b100101000 7
b100101000 ^
10
#1680000
00
#1690000
b100101100 *
b100101100 7
b100101100 ^
10
#1700000
00
#1710000
b100110000 *
b100110000 7
b100110000 ^
10
#1720000
00
#1730000
b100110100 *
b100110100 7
b100110100 ^
10
#1740000
00
#1750000
b100111000 *
b100111000 7
b100111000 ^
10
#1760000
00
#1770000
b100111100 *
b100111100 7
b100111100 ^
10
#1780000
00
#1790000
b101000000 *
b101000000 7
b101000000 ^
10
#1800000
b1 J"
b101 L"
b110110 :
b110110 <"
b10100 @"
b10000 _
b110110 b
b100110 c
b10100 f
b101 =
b101 A"
b110110 .
b110110 4
b110110 /
b110110 [
b110110 w
b1000110 j
b11110 d
b1111101000 h
b1111101000 ("
b10100 \
b10100 a
b10100 %"
b1000 9
b1000 $"
b1000 ;"
1@
b101 ]
b101 i
b101 {
b1000100100000000100101 R
b1000100100000000100101 }
b100000000100101 T
b100000000100101 S
b100000000100101 |
b1000 L
b1000 !"
b10100 -
b10100 6
b10100 J
b10100 :"
b10 >
b10 #"
b10 8"
b100101 z
00
b1000100100000000100101 1
b1000100100000000100101 3
b1000100100000000100101 x
#1810000
b110110 "
b110110 B
b110110 6"
b101000100 *
b101000100 7
b101000100 ^
10
#1820000
00
#1830000
b101001000 *
b101001000 7
b101001000 ^
10
#1840000
00
#1850000
b101001100 *
b101001100 7
b101001100 ^
10
#1860000
00
#1870000
b101010000 *
b101010000 7
b101010000 ^
10
#1880000
00
#1890000
b101010100 *
b101010100 7
b101010100 ^
10
#1900000
00
#1910000
b101011000 *
b101011000 7
b101011000 ^
10
#1920000
00
#1930000
b101011100 *
b101011100 7
b101011100 ^
10
#1940000
00
#1950000
b101100000 *
b101100000 7
b101100000 ^
10
#1960000
00
#1970000
b101100100 *
b101100100 7
b101100100 ^
10
#1980000
00
#1990000
b101101000 *
b101101000 7
b101101000 ^
10
#2000000
00
#2010000
b101101100 *
b101101100 7
b101101100 ^
10
#2020000
00
#2030000
b101110000 *
b101110000 7
b101110000 ^
10
#2040000
00
#2050000
b101110100 *
b101110100 7
b101110100 ^
10
#2060000
00
#2070000
b101111000 *
b101111000 7
b101111000 ^
10
#2080000
00
#2090000
b101111100 *
b101111100 7
b101111100 ^
10
