or1200_phase2.vcd
$date
	Wed Jun 10 10:24:58 2026
$end
$version
	Icarus Verilog
$end
$timescale
	1ps
$end
$scope module tb_or1200_phase2 $end
$var wire 32 ! reg_r8 [31:0] $end
$var wire 32 " reg_r7 [31:0] $end
$var wire 32 # reg_r6 [31:0] $end
$var wire 32 $ reg_r5 [31:0] $end
$var wire 32 % reg_r4 [31:0] $end
$var wire 32 & reg_r3 [31:0] $end
$var wire 32 ' reg_r2 [31:0] $end
$var wire 32 ( reg_r1 [31:0] $end
$var wire 32 ) pc_out [31:0] $end
$var wire 1 * mem_write $end
$var wire 1 + mem_read $end
$var wire 32 , mem_data_out [31:0] $end
$var wire 32 - mem_addr [31:0] $end
$var wire 32 . alu_result_out [31:0] $end
$var reg 1 / clk $end
$var reg 32 0 instruction [31:0] $end
$var reg 32 1 mem_data_in [31:0] $end
$var reg 1 2 rst $end
$scope module pipeline $end
$var wire 32 3 alu_result_out [31:0] $end
$var wire 1 / clk $end
$var wire 5 4 ex_dest_reg [4:0] $end
$var wire 32 5 ex_reg_data2_out [31:0] $end
$var wire 4 6 id_alu_op [3:0] $end
$var wire 1 7 id_alu_src_b $end
$var wire 1 8 id_mem_read $end
$var wire 2 9 id_mem_size [1:0] $end
$var wire 1 : id_mem_write $end
$var wire 5 ; id_rd [4:0] $end
$var wire 32 < id_reg_data1 [31:0] $end
$var wire 32 = id_reg_data2 [31:0] $end
$var wire 1 > id_reg_src $end
$var wire 1 ? id_reg_write $end
$var wire 5 @ id_rs [4:0] $end
$var wire 5 A id_rt [4:0] $end
$var wire 32 B id_sign_ext [31:0] $end
$var wire 32 C if_pc [31:0] $end
$var wire 32 D instruction [31:0] $end
$var wire 32 E mem_data_in [31:0] $end
$var wire 32 F pc_out [31:0] $end
$var wire 1 2 rst $end
$var wire 1 G wb_write_en $end
$var wire 32 H wb_write_data [31:0] $end
$var wire 5 I wb_write_addr [4:0] $end
$var wire 1 J wb_reg_write $end
$var wire 1 K wb_reg_src $end
$var wire 32 L wb_mem_data [31:0] $end
$var wire 5 M wb_dest_reg [4:0] $end
$var wire 32 N wb_alu_result [31:0] $end
$var wire 1 O stall $end
$var wire 32 P reg_r8 [31:0] $end
$var wire 32 Q reg_r7 [31:0] $end
$var wire 32 R reg_r6 [31:0] $end
$var wire 32 S reg_r5 [31:0] $end
$var wire 32 T reg_r4 [31:0] $end
$var wire 32 U reg_r3 [31:0] $end
$var wire 32 V reg_r2 [31:0] $end
$var wire 32 W reg_r1 [31:0] $end
$var wire 1 * mem_write $end
$var wire 1 X mem_reg_write_out $end
$var wire 1 Y mem_reg_write $end
$var wire 1 Z mem_reg_src_out $end
$var wire 1 [ mem_reg_src $end
$var wire 32 \ mem_reg_data2 [31:0] $end
$var wire 1 + mem_read $end
$var wire 1 ] mem_mem_write $end
$var wire 2 ^ mem_mem_size [1:0] $end
$var wire 1 _ mem_mem_read $end
$var wire 5 ` mem_dest_reg_out [4:0] $end
$var wire 5 a mem_dest_reg [4:0] $end
$var wire 32 b mem_data_result [31:0] $end
$var wire 32 c mem_data_out [31:0] $end
$var wire 32 d mem_alu_result_out [31:0] $end
$var wire 32 e mem_alu_result [31:0] $end
$var wire 32 f mem_addr [31:0] $end
$var wire 32 g id_pc [31:0] $end
$var wire 32 h id_instruction [31:0] $end
$var wire 32 i forwarded_data2 [31:0] $end
$var wire 32 j forwarded_data1 [31:0] $end
$var wire 2 k forward_b [1:0] $end
$var wire 2 l forward_a [1:0] $end
$var wire 32 m ex_sign_ext [31:0] $end
$var wire 5 n ex_rt [4:0] $end
$var wire 5 o ex_rs [4:0] $end
$var wire 1 p ex_reg_write $end
$var wire 1 q ex_reg_src $end
$var wire 32 r ex_reg_data2 [31:0] $end
$var wire 32 s ex_reg_data1 [31:0] $end
$var wire 5 t ex_rd [4:0] $end
$var wire 32 u ex_pc [31:0] $end
$var wire 1 v ex_mem_write $end
$var wire 2 w ex_mem_size [1:0] $end
$var wire 1 x ex_mem_read $end
$var wire 1 y ex_alu_src_b $end
$var wire 32 z ex_alu_result [31:0] $end
$var wire 4 { ex_alu_op [3:0] $end
$var reg 32 | pc [31:0] $end
$scope module core $end
$var wire 1 / clk $end
$var wire 32 } instruction [31:0] $end
$var wire 32 ~ mem_addr [31:0] $end
$var wire 32 !" mem_data_in [31:0] $end
$var wire 32 "" mem_data_out [31:0] $end
$var wire 1 #" mem_read $end
$var wire 1 $" mem_write $end
$var wire 32 %" pc_out [31:0] $end
$var wire 1 2 rst $end
$var wire 1 &" zero_flag $end
$var wire 5 '" write_reg [4:0] $end
$var wire 32 (" write_data [31:0] $end
$var wire 1 )" sign_flag $end
$var wire 32 *" shift_result [31:0] $end
$var wire 3 +" shift_op [2:0] $end
$var wire 5 ," rt [4:0] $end
$var wire 5 -" rs [4:0] $end
$var wire 1 ." reg_write $end
$var wire 1 /" reg_src $end
$var wire 32 0" reg_r8 [31:0] $end
$var wire 32 1" reg_r7 [31:0] $end
$var wire 32 2" reg_r6 [31:0] $end
$var wire 32 3" reg_r5 [31:0] $end
$var wire 32 4" reg_r4 [31:0] $end
$var wire 32 5" reg_r3 [31:0] $end
$var wire 32 6" reg_r2 [31:0] $end
$var wire 32 7" reg_r1 [31:0] $end
$var wire 32 8" read_data2 [31:0] $end
$var wire 32 9" read_data1 [31:0] $end
$var wire 5 :" rd [4:0] $end
$var wire 1 ;" overflow_flag $end
$var wire 64 <" mul_result [63:0] $end
$var wire 1 =" mem_write_ctrl $end
$var wire 2 >" mem_size [1:0] $end
$var wire 1 ?" mem_read_ctrl $end
$var wire 26 @" jump_target [25:0] $end
$var wire 16 A" immediate [15:0] $end
$var wire 32 B" imm_extended [31:0] $end
$var wire 1 C" illegal_instr $end
$var wire 4 D" flags [3:0] $end
$var wire 1 E" carry_out $end
$var wire 1 F" branch_cond $end
$var wire 1 G" branch $end
$var wire 1 H" alu_src_b $end
$var wire 32 I" alu_result [31:0] $end
$var wire 32 J" alu_operand_b [31:0] $end
$var wire 4 K" alu_op [3:0] $end
$var reg 32 L" pc [31:0] $end
$scope module alu_unit $end
$var wire 32 M" and_result [31:0] $end
$var wire 1 N" carry_in $end
$var wire 32 O" operand_b [31:0] $end
$var wire 32 P" or_result [31:0] $end
$var wire 32 Q" xor_result [31:0] $end
$var wire 33 R" sub_result [32:0] $end
$var wire 32 S" shift_result [31:0] $end
$var wire 5 T" shift_amount [4:0] $end
$var wire 32 U" operand_a [31:0] $end
$var wire 64 V" mul_result [63:0] $end
$var wire 4 W" alu_op [3:0] $end
$var wire 33 X" add_result [32:0] $end
$var parameter 4 Y" ALU_ADD $end
$var parameter 4 Z" ALU_ADDC $end
$var parameter 4 [" ALU_AND $end
$var parameter 4 \" ALU_CMP $end
$var parameter 4 ]" ALU_MUL $end
$var parameter 4 ^" ALU_OR $end
$var parameter 4 _" ALU_SLL $end
$var parameter 4 `" ALU_SRA $end
$var parameter 4 a" ALU_SRL $end
$var parameter 4 b" ALU_SUB $end
$var parameter 4 c" ALU_SUBC $end
$var parameter 4 d" ALU_XOR $end
$var reg 1 E" carry_out $end
$var reg 1 ;" overflow $end
$var reg 32 e" result [31:0] $end
$var reg 1 )" sign_flag $end
$var reg 1 &" zero_flag $end
$upscope $end
$scope module ctrl $end
$var wire 1 / clk $end
$var wire 32 f" instruction [31:0] $end
$var wire 1 2 rst $end
$var wire 6 g" opcode [5:0] $end
$var wire 6 h" func [5:0] $end
$var reg 4 i" alu_op [3:0] $end
$var reg 1 H" alu_src_b $end
$var reg 1 G" branch $end
$var reg 1 F" branch_cond $end
$var reg 1 C" illegal_instruction $end
$var reg 16 j" immediate [15:0] $end
$var reg 26 k" jump_target [25:0] $end
$var reg 1 ?" mem_read $end
$var reg 2 l" mem_size [1:0] $end
$var reg 1 =" mem_write $end
$var reg 5 m" rd [4:0] $end
$var reg 1 /" reg_src $end
$var reg 1 ." reg_write $end
$var reg 5 n" rs [4:0] $end
$var reg 5 o" rt [4:0] $end
$var reg 5 p" write_reg [4:0] $end
$upscope $end
$scope module mul_unit $end
$var wire 1 / clk $end
$var wire 32 q" multiplier [31:0] $end
$var wire 1 r" multiply_en $end
$var wire 1 2 rst $end
$var wire 32 s" multiplicand [31:0] $end
$var wire 64 t" fast_product [63:0] $end
$var reg 32 u" a_reg [31:0] $end
$var reg 32 v" b_reg [31:0] $end
$var reg 5 w" bit_counter [4:0] $end
$var reg 1 x" multiplying $end
$var reg 64 y" product [63:0] $end
$var reg 1 z" ready $end
$upscope $end
$scope module regfile $end
$var wire 1 / clk $end
$var wire 32 {" r1_out [31:0] $end
$var wire 32 |" r2_out [31:0] $end
$var wire 32 }" r3_out [31:0] $end
$var wire 32 ~" r4_out [31:0] $end
$var wire 32 !# r5_out [31:0] $end
$var wire 32 "# r6_out [31:0] $end
$var wire 32 ## r7_out [31:0] $end
$var wire 32 $# r8_out [31:0] $end
$var wire 5 %# read_addr1 [4:0] $end
$var wire 5 &# read_addr2 [4:0] $end
$var wire 32 '# read_data1 [31:0] $end
$var wire 32 (# read_data2 [31:0] $end
$var wire 1 2 rst $end
$var wire 5 )# write_addr [4:0] $end
$var wire 32 *# write_data [31:0] $end
$var wire 1 ." write_enable $end
$var integer 32 +# i [31:0] $end
$upscope $end
$scope module shifter_unit $end
$var wire 32 ,# data_in [31:0] $end
$var wire 32 -# result [31:0] $end
$var wire 5 .# shift_amount [4:0] $end
$var wire 3 /# shift_op [2:0] $end
$var wire 32 0# shift_stage5 [31:0] $end
$var wire 32 1# shift_stage4 [31:0] $end
$var wire 32 2# shift_stage3 [31:0] $end
$var wire 32 3# shift_stage2 [31:0] $end
$var wire 32 4# shift_stage1 [31:0] $end
$var parameter 3 5# SHIFT_LL $end
$var parameter 3 6# SHIFT_RA $end
$var parameter 3 7# SHIFT_RL $end
$scope function shift_left_right $end
$var reg 5 8# amount [4:0] $end
$var reg 32 9# data [31:0] $end
$var reg 3 :# op [2:0] $end
$var reg 32 ;# temp [31:0] $end
$var integer 32 <# i [31:0] $end
$upscope $end
$upscope $end
$upscope $end
$scope module hu $end
$var wire 5 =# id_rs [4:0] $end
$var wire 5 ># id_rt [4:0] $end
$var wire 1 J wb_reg_write $end
$var wire 5 ?# wb_rd [4:0] $end
$var wire 1 Y mem_reg_write $end
$var wire 5 @# mem_rd [4:0] $end
$var wire 1 p ex_reg_write $end
$var wire 5 A# ex_rd [4:0] $end
$var wire 1 x ex_mem_read $end
$var reg 2 B# forward_a [1:0] $end
$var reg 2 C# forward_b [1:0] $end
$var reg 1 O stall $end
$upscope $end
$scope module mem $end
$var wire 1 / clk $end
$var wire 32 D# mem_addr [31:0] $end
$var wire 32 E# mem_data_in [31:0] $end
$var wire 32 F# mem_data_out [31:0] $end
$var wire 1 + mem_rd_en $end
$var wire 32 G# mem_read_data [31:0] $end
$var wire 1 * mem_wr_en $end
$var wire 1 2 rst $end
$var wire 8 H# word_addr [7:0] $end
$var wire 1 Y reg_write $end
$var wire 1 [ reg_src $end
$var wire 32 I# reg_data2 [31:0] $end
$var wire 1 ] mem_write $end
$var wire 2 J# mem_size [1:0] $end
$var wire 1 _ mem_read $end
$var wire 5 K# dest_reg [4:0] $end
$var wire 32 L# alu_result [31:0] $end
$var reg 32 M# alu_result_out [31:0] $end
$var reg 5 N# dest_reg_out [4:0] $end
$var reg 32 O# mem_data_result [31:0] $end
$var reg 1 Z reg_src_out $end
$var reg 1 X reg_write_out $end
$var integer 32 P# i [31:0] $end
$upscope $end
$scope module pregs $end
$var wire 1 / clk $end
$var wire 32 Q# ex_alu_result [31:0] $end
$var wire 5 R# ex_dest_reg [4:0] $end
$var wire 1 x ex_mem_read_out $end
$var wire 2 S# ex_mem_size_out [1:0] $end
$var wire 1 v ex_mem_write_out $end
$var wire 32 T# ex_reg_data2_out [31:0] $end
$var wire 1 q ex_reg_src_out $end
$var wire 1 p ex_reg_write_out $end
$var wire 4 U# id_alu_op [3:0] $end
$var wire 1 7 id_alu_src_b $end
$var wire 1 8 id_mem_read $end
$var wire 2 V# id_mem_size [1:0] $end
$var wire 1 : id_mem_write $end
$var wire 5 W# id_rd [4:0] $end
$var wire 32 X# id_reg_data1 [31:0] $end
$var wire 32 Y# id_reg_data2 [31:0] $end
$var wire 1 > id_reg_src $end
$var wire 1 ? id_reg_write $end
$var wire 5 Z# id_rs [4:0] $end
$var wire 5 [# id_rt [4:0] $end
$var wire 32 \# id_sign_ext [31:0] $end
$var wire 32 ]# if_instruction [31:0] $end
$var wire 32 ^# if_pc [31:0] $end
$var wire 32 _# mem_alu_result_out [31:0] $end
$var wire 32 `# mem_data_result [31:0] $end
$var wire 5 a# mem_dest_reg_out [4:0] $end
$var wire 1 Z mem_reg_src_out $end
$var wire 1 X mem_reg_write_out $end
$var wire 1 2 rst $end
$var wire 1 O stall $end
$var reg 4 b# ex_alu_op [3:0] $end
$var reg 1 y ex_alu_src_b $end
$var reg 1 x ex_mem_read $end
$var reg 2 c# ex_mem_size [1:0] $end
$var reg 1 v ex_mem_write $end
$var reg 32 d# ex_pc [31:0] $end
$var reg 5 e# ex_rd [4:0] $end
$var reg 32 f# ex_reg_data1 [31:0] $end
$var reg 32 g# ex_reg_data2 [31:0] $end
$var reg 1 q ex_reg_src $end
$var reg 1 p ex_reg_write $end
$var reg 5 h# ex_rs [4:0] $end
$var reg 5 i# ex_rt [4:0] $end
$var reg 32 j# ex_sign_ext [31:0] $end
$var reg 32 k# id_instruction [31:0] $end
$var reg 32 l# id_pc [31:0] $end
$var reg 32 m# mem_alu_result [31:0] $end
$var reg 5 n# mem_dest_reg [4:0] $end
$var reg 1 _ mem_mem_read $end
$var reg 2 o# mem_mem_size [1:0] $end
$var reg 1 ] mem_mem_write $end
$var reg 32 p# mem_reg_data2 [31:0] $end
$var reg 1 [ mem_reg_src $end
$var reg 1 Y mem_reg_write $end
$var reg 32 q# wb_alu_result [31:0] $end
$var reg 5 r# wb_dest_reg [4:0] $end
$var reg 32 s# wb_mem_data [31:0] $end
$var reg 1 K wb_reg_src $end
$var reg 1 J wb_reg_write $end
$upscope $end
$scope module wb $end
$var wire 32 t# alu_result [31:0] $end
$var wire 1 / clk $end
$var wire 5 u# dest_reg [4:0] $end
$var wire 32 v# mem_data [31:0] $end
$var wire 1 K reg_src $end
$var wire 1 J reg_write $end
$var wire 1 2 rst $end
$var wire 5 w# write_addr [4:0] $end
$var wire 1 G write_en $end
$var wire 32 x# write_data [31:0] $end
$upscope $end
$upscope $end
$upscope $end
$enddefinitions $end
$comment Show the parameter values. $end
$dumpall
b1 7#
b10 6#
b0 5#
b110 d"
b11 c"
b10 b"
b1000 a"
b1001 `"
b111 _"
b101 ^"
b1010 ]"
b1011 \"
b100 ["
b1 Z"
b0 Y"
$end
#0
$dumpvars
bx x#
bx w#
bx v#
bx u#
bx t#
bx s#
bx r#
bx q#
bx p#
bx o#
bx n#
bx m#
bx l#
bx k#
bx j#
bx i#
bx h#
bx g#
bx f#
bx e#
bx d#
bx c#
bx b#
bx a#
bx `#
bx _#
bx ^#
b0 ]#
bz \#
bz [#
bz Z#
bz Y#
bz X#
bz W#
bz V#
bz U#
bz T#
bx S#
bz R#
b0 Q#
b100000000 P#
bx O#
bx N#
bx M#
bx L#
bx K#
bx J#
bx I#
bx H#
bx G#
bx F#
b0 E#
bx D#
b0 C#
b0 B#
bx A#
bx @#
bx ?#
bz >#
bz =#
b10000 <#
b0 ;#
b0 :#
b0 9#
b10000 8#
b0 4#
b0 3#
b0 2#
b0 1#
b0 0#
b0 /#
b0 .#
b0 -#
b0 ,#
b100000 +#
b0 *#
b0 )#
b0 (#
b0 '#
b0 &#
b0 %#
b0 $#
b0 ##
b0 "#
b110010 !#
b101000 ~"
b11110 }"
b10100 |"
b1010 {"
xz"
bx y"
xx"
bx w"
bx v"
bx u"
b0 t"
b0 s"
0r"
b0 q"
b0 p"
b0 o"
b0 n"
b0 m"
b10 l"
b0 k"
b0 j"
b0 i"
b0 h"
b0 g"
b0 f"
b0 e"
b0 X"
b0 W"
b0 V"
b0 U"
b0 T"
b0 S"
b0 R"
b0 Q"
b0 P"
b0 O"
0N"
b0 M"
bx L"
b0 K"
b0 J"
b0 I"
0H"
0G"
0F"
0E"
b100 D"
1C"
b0 B"
b0 A"
b0 @"
0?"
b10 >"
0="
bx <"
0;"
b0 :"
b0 9"
b0 8"
b1010 7"
b10100 6"
b11110 5"
b101000 4"
b110010 3"
b0 2"
b0 1"
b0 0"
0/"
1."
b0 -"
b0 ,"
b0 +"
b0 *"
0)"
b0 ("
b0 '"
1&"
bx %"
0$"
0#"
b0 ""
b0 !"
b0 ~
b0 }
bx |
bx {
b0 z
xy
xx
bx w
xv
bx u
bx t
bx s
bx r
xq
xp
bx o
bx n
bx m
b0 l
b0 k
bx j
bx i
bx h
bx g
bx f
bx e
bx d
bx c
bx b
bx a
bx `
x_
bx ^
x]
bx \
x[
xZ
xY
xX
b1010 W
b10100 V
b11110 U
b101000 T
b110010 S
b0 R
b0 Q
b0 P
0O
bx N
bx M
bx L
xK
xJ
bx I
bx H
xG
bx F
b0 E
b0 D
bx C
bz B
bz A
bz @
z?
z>
bz =
bz <
bz ;
z:
bz 9
z8
z7
bz 6
bz 5
bz 4
b0 3
12
b0 1
b0 0
0/
b0 .
bx -
bx ,
x+
x*
bx )
b1010 (
b10100 '
b11110 &
b101000 %
b110010 $
b0 #
b0 "
b0 !
$end
#10000
b1111000 b
b1111000 O#
b1111000 `#
b0 i
b0 j
b0 H
b0 x#
b10010001101000101011001111000 G#
b0 H#
b0 $
b0 S
b0 3"
b0 !#
b0 %
b0 T
b0 4"
b0 ~"
b0 &
b0 U
b0 5"
b0 }"
b0 '
b0 V
b0 6"
b0 |"
b0 (
b0 W
b0 7"
b0 {"
b0 w"
0x"
1z"
b0 <"
b0 y"
b0 %"
b0 L"
0K
0G
0J
b0 I
b0 w#
b0 M
b0 ?#
b0 r#
b0 u#
b0 N
b0 q#
b0 t#
b0 L
b0 s#
b0 v#
0[
0Y
b0 ^
b0 J#
b0 o#
0*
0]
0+
0_
b0 a
b0 @#
b0 K#
b0 n#
b0 ,
b0 c
b0 F#
b0 \
b0 I#
b0 p#
b0 -
b0 f
b0 D#
b0 e
b0 L#
b0 m#
b0 u
b0 d#
0q
0p
b0 w
b0 S#
b0 c#
0v
0x
0y
b0 {
b0 b#
b0 t
b0 A#
b0 e#
b0 n
b0 i#
b0 o
b0 h#
b0 m
b0 j#
b0 r
b0 g#
b0 s
b0 f#
b0 h
b0 k#
b0 g
b0 l#
0Z
0X
b0 `
b0 N#
b0 a#
b0 d
b0 M#
b0 _#
b0 )
b0 F
b0 C
b0 ^#
b0 |
b100000 +#
1/
#20000
0/
#30000
b100000 +#
1/
#40000
0/
#50000
b100000 +#
1/
#60000
0/
#70000
b100000 +#
1/
#80000
0/
#90000
b100000 +#
1/
#100000
0/
#110000
b100000 +#
1/
#120000
0/
#130000
b100000 +#
1/
#140000
0/
#150000
b100000 +#
1/
#160000
0/
#170000
b100000 +#
1/
#180000
0/
#190000
b100000 +#
1/
#200000
0/
02
#210000
bz i
bz j
b100 %"
b100 L"
b1111000 L
b1111000 s#
b1111000 v#
bz a
bz @#
bz K#
bz n#
bz ,
bz c
bz F#
bz \
bz I#
bz p#
zq
zp
bz w
bz S#
bz c#
zv
zx
zy
bz {
bz b#
bz t
bz A#
bz e#
bz n
bz i#
bz o
bz h#
bz m
bz j#
bz r
bz g#
bz s
bz f#
b100 )
b100 F
b100 C
b100 ^#
b100 |
1/
#220000
0/
#230000
b0 b
b0 O#
b0 `#
b1000 )
b1000 F
b1000 C
b1000 ^#
b1000 |
bz `
bz N#
bz a#
z[
zY
bz ^
bz J#
bz o#
z*
z]
z+
z_
b100 g
b100 l#
b1000 %"
b1000 L"
1/
#240000
0/
#250000
b1100 %"
b1100 L"
bz I
bz w#
bz M
bz ?#
bz r#
bz u#
b0 L
b0 s#
b0 v#
b100 u
b100 d#
b1000 g
b1000 l#
zZ
zX
b1100 )
b1100 F
b1100 C
b1100 ^#
b1100 |
1/
#260000
0/
#270000
b10000 )
b10000 F
b10000 C
b10000 ^#
b10000 |
zK
zG
zJ
b1000 u
b1000 d#
b1100 g
b1100 l#
b10000 %"
b10000 L"
1/
#280000
0/
#290000
b10100 %"
b10100 L"
b1100 u
b1100 d#
b10000 g
b10000 l#
b10100 )
b10100 F
b10100 C
b10100 ^#
b10100 |
1/
#300000
0/
#310000
b11000 )
b11000 F
b11000 C
b11000 ^#
b11000 |
b10000 u
b10000 d#
b10100 g
b10100 l#
b11000 %"
b11000 L"
1/
#320000
0/
#330000
b11100 %"
b11100 L"
b10100 u
b10100 d#
b11000 g
b11000 l#
b11100 )
b11100 F
b11100 C
b11100 ^#
b11100 |
1/
#340000
0/
#350000
b100000 )
b100000 F
b100000 C
b100000 ^#
b100000 |
b11000 u
b11000 d#
b11100 g
b11100 l#
b100000 %"
b100000 L"
1/
#360000
0/
#370000
b100100 %"
b100100 L"
b11100 u
b11100 d#
b100000 g
b100000 l#
b100100 )
b100100 F
b100100 C
b100100 ^#
b100100 |
1/
#380000
0/
#390000
b101000 )
b101000 F
b101000 C
b101000 ^#
b101000 |
b100000 u
b100000 d#
b100100 g
b100100 l#
b101000 %"
b101000 L"
1/
#400000
b1100100 ("
b1100100 *#
b100 .#
b1100100 P"
b1100100 Q"
b0 D"
0&"
b1100100 ~
b1100100 .
b1100100 3
b1100100 z
b1100100 I"
b1100100 e"
b1100100 Q#
b100 T"
b1100100 X"
b111111111111111111111111110011100 R"
b1100100 J"
b1100100 O"
b1100100 q"
b1 '"
b1 p"
b1 )#
1H"
0C"
1."
b10000000001100100 @"
b10000000001100100 k"
b1100100 B"
b1100100 A"
b1100100 j"
b1 ,"
b1 o"
b1 &#
b1000 g"
b100100 h"
0/
b100000000000010000000001100100 0
b100000000000010000000001100100 D
b100000000000010000000001100100 }
b100000000000010000000001100100 f"
b100000000000010000000001100100 ]#
#410000
b0 G#
b11001 H#
b1100100 ""
b1100100 8"
b1100100 (#
b1100100 (
b1100100 W
b1100100 7"
b1100100 {"
b101100 %"
b101100 L"
b1100100 -
b1100100 f
b1100100 D#
b1100100 e
b1100100 L#
b1100100 m#
b100100 u
b100100 d#
b100000000000010000000001100100 h
b100000000000010000000001100100 k#
b101000 g
b101000 l#
b101100 )
b101100 F
b101100 C
b101100 ^#
b101100 |
1/
#420000
0/
#430000
b110000 )
b110000 F
b110000 C
b110000 ^#
b110000 |
b1100100 d
b1100100 M#
b1100100 _#
b101000 u
b101000 d#
b101100 g
b101100 l#
b110000 %"
b110000 L"
1/
#440000
0/
#450000
b0xx00x00 H
b0xx00x00 x#
b110100 %"
b110100 L"
b1100100 N
b1100100 q#
b1100100 t#
b101100 u
b101100 d#
b110000 g
b110000 l#
b110100 )
b110100 F
b110100 C
b110100 ^#
b110100 |
1/
#460000
0/
#470000
b111000 )
b111000 F
b111000 C
b111000 ^#
b111000 |
b110000 u
b110000 d#
b110100 g
b110100 l#
b111000 %"
b111000 L"
1/
#480000
0/
#490000
b111100 %"
b111100 L"
b110100 u
b110100 d#
b111000 g
b111000 l#
b111100 )
b111100 F
b111100 C
b111100 ^#
b111100 |
1/
#500000
0/
#510000
b1000000 )
b1000000 F
b1000000 C
b1000000 ^#
b1000000 |
b111000 u
b111000 d#
b111100 g
b111100 l#
b1000000 %"
b1000000 L"
1/
#520000
0/
#530000
b1000100 %"
b1000100 L"
b111100 u
b111100 d#
b1000000 g
b1000000 l#
b1000100 )
b1000100 F
b1000100 C
b1000100 ^#
b1000100 |
1/
#540000
0/
#550000
b1001000 )
b1001000 F
b1001000 C
b1001000 ^#
b1001000 |
b1000000 u
b1000000 d#
b1000100 g
b1000100 l#
b1001000 %"
b1001000 L"
1/
#560000
0/
#570000
b1001100 %"
b1001100 L"
b1000100 u
b1000100 d#
b1001000 g
b1001000 l#
b1001100 )
b1001100 F
b1001100 C
b1001100 ^#
b1001100 |
1/
#580000
0/
#590000
b1010000 )
b1010000 F
b1010000 C
b1010000 ^#
b1010000 |
b1001000 u
b1001000 d#
b1001100 g
b1001100 l#
b1010000 %"
b1010000 L"
1/
#600000
b110010 ("
b110010 *#
b10010 .#
b110010 P"
b110010 Q"
b110010 ~
b110010 .
b110010 3
b110010 z
b110010 I"
b110010 e"
b110010 Q#
b10010 T"
b110010 X"
b111111111111111111111111111001110 R"
b110010 J"
b110010 O"
b110010 q"
b10 '"
b10 p"
b10 )#
1."
1H"
b100000000000110010 @"
b100000000000110010 k"
b110010 B"
b110010 A"
b110010 j"
b0 ""
b0 8"
b0 (#
b10 ,"
b10 o"
b10 &#
b110010 h"
0/
b100000000000100000000000110010 0
b100000000000100000000000110010 D
b100000000000100000000000110010 }
b100000000000100000000000110010 f"
b100000000000100000000000110010 ]#
#610000
b1100 H#
b110010 ""
b110010 8"
b110010 (#
b110010 '
b110010 V
b110010 6"
b110010 |"
b1010100 %"
b1010100 L"
b110010 -
b110010 f
b110010 D#
b110010 e
b110010 L#
b110010 m#
b1001100 u
b1001100 d#
b100000000000100000000000110010 h
b100000000000100000000000110010 k#
b1010000 g
b1010000 l#
b1010100 )
b1010100 F
b1010100 C
b1010100 ^#
b1010100 |
1/
#620000
0/
#630000
b1011000 )
b1011000 F
b1011000 C
b1011000 ^#
b1011000 |
b110010 d
b110010 M#
b110010 _#
b1010000 u
b1010000 d#
b1010100 g
b1010100 l#
b1011000 %"
b1011000 L"
1/
#640000
0/
#650000
b0xx00x0 H
b0xx00x0 x#
b1011100 %"
b1011100 L"
b110010 N
b110010 q#
b110010 t#
b1010100 u
b1010100 d#
b1011000 g
b1011000 l#
b1011100 )
b1011100 F
b1011100 C
b1011100 ^#
b1011100 |
1/
#660000
0/
#670000
b1100000 )
b1100000 F
b1100000 C
b1100000 ^#
b1100000 |
b1011000 u
b1011000 d#
b1011100 g
b1011100 l#
b1100000 %"
b1100000 L"
1/
#680000
0/
#690000
b1100100 %"
b1100100 L"
b1011100 u
b1011100 d#
b1100000 g
b1100000 l#
b1100100 )
b1100100 F
b1100100 C
b1100100 ^#
b1100100 |
1/
#700000
0/
#710000
b1101000 )
b1101000 F
b1101000 C
b1101000 ^#
b1101000 |
b1100000 u
b1100000 d#
b1100100 g
b1100100 l#
b1101000 %"
b1101000 L"
1/
#720000
0/
#730000
b1101100 %"
b1101100 L"
b1100100 u
b1100100 d#
b1101000 g
b1101000 l#
b1101100 )
b1101100 F
b1101100 C
b1101100 ^#
b1101100 |
1/
#740000
0/
#750000
b1110000 )
b1110000 F
b1110000 C
b1110000 ^#
b1110000 |
b1101000 u
b1101000 d#
b1101100 g
b1101100 l#
b1110000 %"
b1110000 L"
1/
#760000
0/
#770000
b1110100 %"
b1110100 L"
b1101100 u
b1101100 d#
b1110000 g
b1110000 l#
b1110100 )
b1110100 F
b1110100 C
b1110100 ^#
b1110100 |
1/
#780000
0/
#790000
b1111000 )
b1111000 F
b1111000 C
b1111000 ^#
b1111000 |
b1110000 u
b1110000 d#
b1110100 g
b1110100 l#
b1111000 %"
b1111000 L"
1/
#800000
b1001011 ("
b1001011 *#
b1011 .#
b1001011 P"
b1001011 Q"
b1001011 ~
b1001011 .
b1001011 3
b1001011 z
b1001011 I"
b1001011 e"
b1001011 Q#
b1011 T"
b1001011 X"
b111111111111111111111111110110101 R"
b1001011 J"
b1001011 O"
b1001011 q"
b11 '"
b11 p"
b11 )#
1."
1H"
b110000000001001011 @"
b110000000001001011 k"
b1001011 B"
b1001011 A"
b1001011 j"
b0 ""
b0 8"
b0 (#
b11 ,"
b11 o"
b11 &#
b1011 h"
0/
b100000000000110000000001001011 0
b100000000000110000000001001011 D
b100000000000110000000001001011 }
b100000000000110000000001001011 f"
b100000000000110000000001001011 ]#
#810000
b10010 H#
b1001011 ""
b1001011 8"
b1001011 (#
b1001011 &
b1001011 U
b1001011 5"
b1001011 }"
b1111100 %"
b1111100 L"
b1001011 -
b1001011 f
b1001011 D#
b1001011 e
b1001011 L#
b1001011 m#
b1110100 u
b1110100 d#
b100000000000110000000001001011 h
b100000000000110000000001001011 k#
b1111000 g
b1111000 l#
b1111100 )
b1111100 F
b1111100 C
b1111100 ^#
b1111100 |
1/
#820000
0/
#830000
b10000000 )
b10000000 F
b10000000 C
b10000000 ^#
b10000000 |
b1001011 d
b1001011 M#
b1001011 _#
b1111000 u
b1111000 d#
b1111100 g
b1111100 l#
b10000000 %"
b10000000 L"
1/
#840000
0/
#850000
b0x00x0xx H
b0x00x0xx x#
b10000100 %"
b10000100 L"
b1001011 N
b1001011 q#
b1001011 t#
b1111100 u
b1111100 d#
b10000000 g
b10000000 l#
b10000100 )
b10000100 F
b10000100 C
b10000100 ^#
b10000100 |
1/
#860000
0/
#870000
b10001000 )
b10001000 F
b10001000 C
b10001000 ^#
b10001000 |
b10000000 u
b10000000 d#
b10000100 g
b10000100 l#
b10001000 %"
b10001000 L"
1/
#880000
0/
#890000
b10001100 %"
b10001100 L"
b10000100 u
b10000100 d#
b10001000 g
b10001000 l#
b10001100 )
b10001100 F
b10001100 C
b10001100 ^#
b10001100 |
1/
#900000
0/
#910000
b10010000 )
b10010000 F
b10010000 C
b10010000 ^#
b10010000 |
b10001000 u
b10001000 d#
b10001100 g
b10001100 l#
b10010000 %"
b10010000 L"
1/
#920000
0/
#930000
b10010100 %"
b10010100 L"
b10001100 u
b10001100 d#
b10010000 g
b10010000 l#
b10010100 )
b10010100 F
b10010100 C
b10010100 ^#
b10010100 |
1/
#940000
0/
#950000
b10011000 )
b10011000 F
b10011000 C
b10011000 ^#
b10011000 |
b10010000 u
b10010000 d#
b10010100 g
b10010100 l#
b10011000 %"
b10011000 L"
1/
#960000
0/
